{
    "order_integration": {
        "column": {
            "entity_id": true,
            "store_id": true,
            "order_id": true,
            "status": true,
            "comment": true,
            "created_at": true,
            "updated_at": true,
            "max_try": true
        },
        "index": {
            "PIM_DISABLE_FRONTEND_STATUS": true
        },
        "constraint": {
            "PRIMARY": true
        }
    }
}
